…
Notice that the function takes the data frame first, since it is designed to be pipeable, and that the following two arguments are the success column and the total column. This computes an estimate of the prior based on maximum likelihood estimation, and gets rather close to the true alpha and beta values.

We could then use that prior to update each individual. The `add_ebb_estimate` is a shortcut for both fitting the prior and updating observations, which is the most common use case:


```r
shrunken <- sim_dat %>%
  add_ebb_estimate(x, total)

shrunken
## # A tibble: 1,000 × 9
##          prob total     x   .alpha1    .beta1   .fitted       .raw
##         <dbl> <dbl> <int>     <dbl>     <dbl>     <dbl>      <dbl>
## 1  0.32006461   182    66  77.39115  162.0875 0.3231651 0.36263736
## 2  0.19505291  1015   198 209.39115  863.0875 0.1952404 0.19507389
## 3  0.25341384     5     1  12.39115   50.0875 0.1983261 0.20000000
## 4  0.10021963    12     3  14.39115   55.0875 0.2071305 0.25000000
## 5  0.19552697  1259   223 234.39115 1082.0875 0.1780440 0.17712470
## 6  0.23109059    40     5  16.39115   81.0875 0.1681512 0.12500000
## 7  0.09012239    49     4  15.39115   91.0875 0.1445468 0.08163265
## 8  0.19990156   188    30  41.39115  204.0875 0.1686140 0.15957447
## 9  0.18335891   238    43  54.39115  241.0875 0.1840781 0.18067227
## 10 0.22318899  1046   238 249.39115  854.0875 0.2260045 0.22753346
## # ... with 990 more rows, and 2 more variables: .low <dbl>, .high <dbl>
```
…
